Kalamazoo - AlphaBeta

The final score is: BLUE: 20, GREEN: 15

[94m[40mThe Winner is BLUE[0m
   A  B  C  D  E
1 [92m[40m01[0m [92m[40m01[0m [94m[40m01[0m [92m[40m01[0m [94m[40m01[0m 
2 [94m[40m01[0m [92m[40m02[0m [92m[40m02[0m [94m[40m02[0m [92m[40m01[0m 
3 [94m[40m01[0m [94m[40m02[0m [94m[40m03[0m [92m[40m02[0m [92m[40m01[0m 
4 [94m[40m01[0m [92m[40m02[0m [94m[40m02[0m [94m[40m02[0m [94m[40m01[0m 
5 [92m[40m01[0m [94m[40m01[0m [92m[40m01[0m [94m[40m01[0m [94m[40m01[0m 

         144157209 function calls (125482517 primitive calls) in 145.723 seconds

2894059/675    2.714    0.000  145.712    0.216 search.py:119(_gen_children)
  1359989    0.333    0.000    0.333    0.000 search.py:17(_toggle_color)
1359989/325    4.793    0.000  145.703    0.448 search.py:61(_utility)
       25    0.000    0.000  145.714    5.829 search.py:74(search)
1360014/25    4.860    0.000  145.714    5.829 search.py:78(_search)
   861362    0.171    0.000    0.171    0.000 search.py:90(<lambda>)
  1858616    0.377    0.000    0.377    0.000 search.py:95(<lambda>)


Player 1 expanded 371974 nodes
Player 2 expanded 988040 nodes

Peoria - AlphaBeta

The final score is: BLUE: 501, GREEN: 798

[92m[40mThe Winner is GREEN[0m
   A  B  C  D  E
1 [94m[40m99[0m [94m[40m01[0m [92m[40m99[0m [92m[40m01[0m [92m[40m99[0m 
2 [94m[40m01[0m [94m[40m99[0m [94m[40m01[0m [92m[40m99[0m [92m[40m01[0m 
3 [94m[40m99[0m [94m[40m01[0m [94m[40m99[0m [92m[40m01[0m [92m[40m99[0m 
4 [92m[40m01[0m [94m[40m99[0m [94m[40m01[0m [92m[40m99[0m [92m[40m01[0m 
5 [92m[40m99[0m [92m[40m01[0m [92m[40m99[0m [94m[40m01[0m [92m[40m99[0m 

         117969462 function calls (102567208 primitive calls) in 119.821 seconds

2238165/675    2.186    0.000  119.810    0.177 search.py:119(_gen_children)
  1041765    0.262    0.000    0.262    0.000 search.py:17(_toggle_color)
1041765/325    3.738    0.000  119.802    0.369 search.py:61(_utility)
       25    0.000    0.000  119.812    4.792 search.py:74(search)
1041790/25    3.822    0.000  119.812    4.792 search.py:78(_search)
  1077754    0.218    0.000    0.218    0.000 search.py:90(<lambda>)
  1005776    0.203    0.000    0.203    0.000 search.py:95(<lambda>)


Player 1 expanded 537923 nodes
Player 2 expanded 503867 nodes

Piqua - AlphaBeta

The final score is: BLUE: 13, GREEN: 12

[94m[40mThe Winner is BLUE[0m
   A  B  C  D  E
1 [94m[40m01[0m [92m[40m01[0m [92m[40m01[0m [94m[40m01[0m [94m[40m01[0m 
2 [94m[40m01[0m [94m[40m01[0m [94m[40m01[0m [92m[40m01[0m [94m[40m01[0m 
3 [94m[40m01[0m [92m[40m01[0m [92m[40m01[0m [94m[40m01[0m [94m[40m01[0m 
4 [92m[40m01[0m [92m[40m01[0m [92m[40m01[0m [92m[40m01[0m [94m[40m01[0m 
5 [92m[40m01[0m [92m[40m01[0m [92m[40m01[0m [94m[40m01[0m [94m[40m01[0m 

         104741866 function calls (91111319 primitive calls) in 106.902 seconds

1923080/675    1.904    0.000  106.891    0.158 search.py:119(_gen_children)
   893486    0.226    0.000    0.226    0.000 search.py:17(_toggle_color)
893486/325    3.267    0.000  106.883    0.329 search.py:61(_utility)
       25    0.000    0.000  106.893    4.276 search.py:74(search)
893511/25    3.280    0.000  106.893    4.276 search.py:78(_search)
   961822    0.193    0.000    0.193    0.000 search.py:90(<lambda>)
   825150    0.168    0.000    0.168    0.000 search.py:95(<lambda>)


Player 1 expanded 489432 nodes
Player 2 expanded 404079 nodes

Punxsutawney - AlphaBeta

The final score is: BLUE: 61, GREEN: 34

[94m[40mThe Winner is BLUE[0m
   A  B  C  D  E
1 [94m[40m10[0m [94m[40m05[0m [94m[40m02[0m [94m[40m01[0m [94m[40m01[0m 
2 [92m[40m10[0m [94m[40m05[0m [92m[40m02[0m [94m[40m01[0m [92m[40m01[0m 
3 [94m[40m10[0m [92m[40m05[0m [94m[40m02[0m [92m[40m01[0m [94m[40m01[0m 
4 [92m[40m10[0m [94m[40m05[0m [94m[40m02[0m [94m[40m01[0m [94m[40m01[0m 
5 [94m[40m10[0m [92m[40m05[0m [94m[40m02[0m [94m[40m01[0m [94m[40m01[0m 

         123265807 function calls (107322825 primitive calls) in 125.334 seconds

2446627/675    2.367    0.000  125.323    0.186 search.py:119(_gen_children)
  1137593    0.283    0.000    0.283    0.000 search.py:17(_toggle_color)
1137593/325    4.145    0.000  125.314    0.386 search.py:61(_utility)
       25    0.000    0.000  125.325    5.013 search.py:74(search)
1137618/25    4.164    0.000  125.325    5.013 search.py:78(_search)
  1106850    0.222    0.000    0.222    0.000 search.py:90(<lambda>)
  1168336    0.236    0.000    0.236    0.000 search.py:95(<lambda>)


Player 1 expanded 536234 nodes
Player 2 expanded 601384 nodes

Wallawalla - AlphaBeta

The final score is: BLUE: 40, GREEN: 36

[94m[40mThe Winner is BLUE[0m
   A  B  C  D  E
1 [92m[40m01[0m [92m[40m10[0m [94m[40m01[0m [94m[40m01[0m [94m[40m02[0m 
2 [92m[40m10[0m [94m[40m01[0m [92m[40m02[0m [94m[40m05[0m [94m[40m10[0m 
3 [94m[40m05[0m [94m[40m01[0m [94m[40m01[0m [92m[40m03[0m [94m[40m07[0m 
4 [94m[40m02[0m [94m[40m01[0m [92m[40m01[0m [92m[40m01[0m [92m[40m03[0m 
5 [94m[40m01[0m [94m[40m02[0m [92m[40m02[0m [92m[40m01[0m [92m[40m02[0m 

         59150023 function calls (51501131 primitive calls) in 60.018 seconds

1216024/675    1.186    0.000   60.007    0.089 search.py:119(_gen_children)
   563359    0.140    0.000    0.140    0.000 search.py:17(_toggle_color)
563359/325    2.025    0.000   59.999    0.185 search.py:61(_utility)
       25    0.000    0.000   60.009    2.400 search.py:74(search)
563384/25    2.055    0.000   60.009    2.400 search.py:78(_search)
   558504    0.111    0.000    0.111    0.000 search.py:90(<lambda>)
   568214    0.114    0.000    0.114    0.000 search.py:95(<lambda>)


Player 1 expanded 277895 nodes
Player 2 expanded 285489 nodes

